…
Für die Verarbeitung von tabellarischen Daten werden in R i.d.R. `data.frame`s verwendet.
Das `tidyverse` package liefert eine erweiterte Version des `data.frame`s, das `tibble`, welches etwas transparenter in seiner Verwendung ist.
In einem `tibble` (oder `data.frame`) entspricht jede Zeile einem Datensatz (oder einer Beobachtung) und jede Spalte einer Variable (oder einem Merkmal) dieses Datensatzes.
Damit haben alle Daten in der gleichen Spalte den gleichen Datentyp, z.B. "Zahl" (`numeric`), "Kommazahl" (`double`), "Ganzzahl" (`integer`), "Text" (`character`), "Datum" (`date`), etc.
Im Folgenden wird der [Beispieldatensatz `storms`](https://dplyr.tidyverse.org/reference/storms.html) aus dem `dplyr` package gezeigt.


``` r
dplyr::storms
```

``` output
# A tibble: 19,537 × 13
   name   year month   day  hour   lat  long status      category  wind pressure
   <chr> <dbl> <dbl> <int> <dbl> <dbl> <dbl> <fct>          <dbl> <int>    <int>
 1 Amy    1975     6    27     0  27.5 -79   tropical d…       NA    25     1013
 2 Amy    1975     6    27     6  28.5 -79   tropical d…       NA    25     1013
 3 Amy    1975     6    27    12  29.5 -79   tropical d…       NA    25     1013
 4 Amy    1975     6    27    18  30.5 -79   tropical d…       NA    25     1013
 5 Amy    1975     6    28     0  31.5 -78.8 tropical d…       NA    25     1012
 6 Amy    1975     6    28     6  32.4 -78.7 tropical d…       NA    25     1012
 7 Amy    1975     6    28    12  33.3 -78   tropical d…       NA    25     1011
 8 Amy    1975     6    28    18  34   -77   tropical d…       NA    30     1006
 9 Amy    1975     6    29     0  34.4 -75.8 tropical s…       NA    35     1004
10 Amy    1975     6    29     6  34   -74.8 tropical s…       NA    40     1002
# ℹ 19,527 more rows
# ℹ 2 more variables: tropicalstorm_force_diameter <int>,
#   hurricane_force_diameter <int>
```
…
